%YAML 1.1
%TAG !u! tag:unity3d.com,2011:
--- !u!1045 &1
EditorBuildSettings:
  m_ObjectHideFlags: 0
  serializedVersion: 2
  m_Scenes:
  - enabled: 1
    path: Assets/00. Menu/00. Scenes/Menu.unity
  - enabled: 1
    path: Assets/01. Customize Player/00. Scenes/CustomizePlayer.unity
  - enabled: 1
    path: Assets/02. Game FlappyBird/00. Scenes/Game_FlappyBird.unity
  - enabled: 1
    path: Assets/03. Game Memmory/00. Scenes/Game_Memmory.unity
  - enabled: 1
    path: Assets/04. Game Connect4/00. Scenes/Game_Connect4.unity
  - enabled: 1
    path: Assets/05. Game WhackAttack/00. Scenes/Game_WhackAttack.unity
  - enabled: 1
    path: Assets/06. Game TicTacToe/00. Scenes/Game_TicTacToe.unity
